No.,Component Name,Type,Website Link
1,FD-Q32C,Flow sensor,https://www.keyence.co.th/products/process/flow/fd-q/models/fd-q32c/
2,FD-XA1,Flow sensor (Controller),https://www.keyence.co.th/products/process/flow/fd-x/models/fd-xa1/
3,FD-XS20E,Flow sensor (Sensor),https://www.keyence.co.th/products/process/flow/fd-x/models/fd-xs20e/
4,FD-XC20M,Flow sensor (Clamp),https://www.keyence.co.th/products/process/flow/fd-x/models/fd-xc20m1/
5,TIM-94N-4CH,Digital Indicator,https://www.primusthai.com/primus/product?productID=1347
6,RTD-TSP-10,RTD,https://www.primusthai.com/primus/category?CategoryID=39
7,IP KWH12CCT,Power meter,https://leosmeter.com/product/12-circuit-lan-rs485/
8,CT 5 (20) A / 2mA Max400 HZ,CT-Probe,https://leosmeter.com/product/high-precision-2500turn/
9,Raspberry Pi 4,Computer,https://www.raspberrypi.com/products/raspberry-pi-4-model-b/
10,Ugreen CM253,USB to RS422/RS485,https://www.ugreen.co.th/product/380/ugreen-usb-to-rs422-rs485-serial-port-converter-adapter-cable-db9-male-ftdi-chip-supports-windows-10
11,Omron 3g3mx2-ab004-v1,Inverter,https://www.omron-ap.co.th/products/family/3164/lineup.html
12,Sanso PMD-2573,Water Pump,https://www.sanso-elec.co.jp/en/product/magnetic-drive-pumps/
